F:\Siddhesh\Devops\Practicals\project\webapp_ci\src\main\java\com\visualpathit\account\model\User.java
F:\Siddhesh\Devops\Practicals\project\webapp_ci\src\main\java\com\visualpathit\account\service\ProducerServiceImpl.java
F:\Siddhesh\Devops\Practicals\project\webapp_ci\src\main\java\com\visualpathit\account\controller\ElasticSearchController.java
F:\Siddhesh\Devops\Practicals\project\webapp_ci\src\main\java\com\visualpathit\account\service\ProducerService.java
F:\Siddhesh\Devops\Practicals\project\webapp_ci\src\main\java\com\visualpathit\account\utils\RabbitMqUtil.java
F:\Siddhesh\Devops\Practicals\project\webapp_ci\src\main\java\com\visualpathit\account\controller\UserController.java
F:\Siddhesh\Devops\Practicals\project\webapp_ci\src\main\java\com\visualpathit\account\service\SecurityService.java
F:\Siddhesh\Devops\Practicals\project\webapp_ci\src\main\java\com\visualpathit\account\repository\RoleRepository.java
F:\Siddhesh\Devops\Practicals\project\webapp_ci\src\main\java\com\visualpathit\account\repository\UserRepository.java
F:\Siddhesh\Devops\Practicals\project\webapp_ci\src\main\java\com\visualpathit\account\utils\ElasticsearchUtil.java
F:\Siddhesh\Devops\Practicals\project\webapp_ci\src\main\java\com\visualpathit\account\validator\UserValidator.java
F:\Siddhesh\Devops\Practicals\project\webapp_ci\src\main\java\com\visualpathit\account\utils\MemcachedUtils.java
F:\Siddhesh\Devops\Practicals\project\webapp_ci\src\main\java\com\visualpathit\account\beans\Components.java
F:\Siddhesh\Devops\Practicals\project\webapp_ci\src\main\java\com\visualpathit\account\controller\FileUploadController.java
F:\Siddhesh\Devops\Practicals\project\webapp_ci\src\main\java\com\visualpathit\account\service\ConsumerServiceImpl.java
F:\Siddhesh\Devops\Practicals\project\webapp_ci\src\main\java\com\visualpathit\account\service\UserServiceImpl.java
F:\Siddhesh\Devops\Practicals\project\webapp_ci\src\main\java\com\visualpathit\account\model\Role.java
F:\Siddhesh\Devops\Practicals\project\webapp_ci\src\main\java\com\visualpathit\account\service\ConsumerService.java
F:\Siddhesh\Devops\Practicals\project\webapp_ci\src\main\java\com\visualpathit\account\service\UserService.java
F:\Siddhesh\Devops\Practicals\project\webapp_ci\src\main\java\com\visualpathit\account\service\SecurityServiceImpl.java
F:\Siddhesh\Devops\Practicals\project\webapp_ci\src\main\java\com\visualpathit\account\service\UserDetailsServiceImpl.java
