F:\Siddhesh\Devops\Practicals\project\webapp_ci\src\test\java\com\visualpathit\account\controllerTest\SampleTest.java
F:\Siddhesh\Devops\Practicals\project\webapp_ci\src\test\java\com\visualpathit\account\modelTest\UserTest.java
F:\Siddhesh\Devops\Practicals\project\webapp_ci\src\test\java\com\visualpathit\account\controllerTest\UserControllerTest.java
F:\Siddhesh\Devops\Practicals\project\webapp_ci\src\test\java\com\visualpathit\account\modelTest\RoleTest.java
F:\Siddhesh\Devops\Practicals\project\webapp_ci\src\test\java\com\visualpathit\account\setup\StandaloneMvcTestViewResolver.java
